"brand","sku","name","screensize","processor","graphicscard","ram","storagesize","os_system","price","qty","status","visibility","websites","attribute_set","type","category_ids","small_image","thumbnail","image"
"dell","123233","12Sony KD65X9300D Full HD 4K Android Internet 3D Television 65inch","","","","","","Windows10","15750.0000","1000.0000","Enabled","Catalog, Search","base","Default","simple","2,3,5,6,7,8,9,10,11,32","/p/r/product_1.png","/p/r/product_1.png","/p/r/product_1.png"
"","123233","","","","","","","","","","","","","","","","","",""
"","123233","","","","","","","","","","","","","","","","","",""
"","123233","","","","","","","","","","","","","","","","","",""
"","123233","","","","","","","","","","","","","","","","","",""
"dell","343434","11Sony KD65X9300D Full HD 4K Android Internet 3D Television 65inch","","","","","","Windows10","15750.0000","99.0000","Enabled","Catalog, Search","base","Default","simple","2,3,5,6,7,8,9,10,11,32,33","/a/c/accessories_6.png","/a/c/accessories_6.png","/a/c/accessories_6.png"
"","343434","","","","","","","","","","","","","","","","","",""
"","343434","","","","","","","","","","","","","","","","","",""
"","343434","","","","","","","","","","","","","","","","","",""
"","343434","","","","","","","","","","","","","","","","","",""
"lenovo","43543555","10Sony KD65X9300D Full HD 4K Android Internet 3D Television 65inch","","","","","","Windows7","15750.0000","997.0000","Enabled","Catalog, Search","base","Default","simple","2,3,5,6,7,8,9,10,11,33","/c/a/camera_3.png","/c/a/camera_3.png","/c/a/camera_3.png"
"","43543555","","","","","","","","","","","","","","","","","",""
"","43543555","","","","","","","","","","","","","","","","","",""
"","43543555","","","","","","","","","","","","","","","","","",""
"","43543555","","","","","","","","","","","","","","","","","",""
"dell","32443242","9Sony KD65X9300D Full HD 4K Android Internet 3D Television 65inch","","","","","","Windows10","15750.0000","1000.0000","Enabled","Catalog, Search","base","Default","simple","2,3,5,6,7,8,9,10,11,33","/l/e/led_2.png","/l/e/led_2.png","/l/e/led_2.png"
"","32443242","","","","","","","","","","","","","","","","","",""
"","32443242","","","","","","","","","","","","","","","","","",""
"","32443242","","","","","","","","","","","","","","","","","",""
"","32443242","","","","","","","","","","","","","","","","","",""
"asus","54333","8Sony KD65X9300D Full HD 4K Android Internet 3D Television 65inch","","","","","","MAC","15750.0000","1000.0000","Enabled","Catalog, Search","base","Default","simple","2,3,5,6,7,8,9,10,11,33","/l/a/laptop_6.png","/l/a/laptop_6.png","/l/a/laptop_6.png"
"","54333","","","","","","","","","","","","","","","","","",""
"","54333","","","","","","","","","","","","","","","","","",""
"","54333","","","","","","","","","","","","","","","","","",""
"","54333","","","","","","","","","","","","","","","","","",""
"dell","345345345","7Sony KD65X9300D Full HD 4K Android Internet 3D Television 65inch","","","","","","Windows10","15750.0000","1000.0000","Enabled","Catalog, Search","base","Default","simple","2,3,5,6,7,8,9,10,11,33","/h/o/home_product_3_1_1_1_1_1.png","/h/o/home_product_3_1_1_1_1_1.png","/h/o/home_product_3_1_1_1_1_1.png"
"","345345345","","","","","","","","","","","","","","","","","",""
"","345345345","","","","","","","","","","","","","","","","","",""
"","345345345","","","","","","","","","","","","","","","","","",""
"","345345345","","","","","","","","","","","","","","","","","",""
"dell","444444","6Sony KD65X9300D Full HD 4K Android Internet 3D Television 65inch","","","","","","Windows10","15750.0000","1000.0000","Enabled","Catalog, Search","base","Default","simple","2,3,5,6,7,8,9,10,11","/c/a/camera_2.png","/c/a/camera_2.png","/c/a/camera_2.png"
"","444444","","","","","","","","","","","","","","","","","",""
"","444444","","","","","","","","","","","","","","","","","",""
"","444444","","","","","","","","","","","","","","","","","",""
"","444444","","","","","","","","","","","","","","","","","",""
"","444444","","","","","","","","","","","","","","","","","",""
"dell","34343434","5Sony KD65X9300D Full HD 4K Android Internet 3D Television 65inch","","","","","","Windows10","15750.0000","1000.0000","Enabled","Catalog, Search","base","Default","simple","2,3,5,6,7,8,9,10,11,33","/l/a/laptop_5.png","/l/a/laptop_5.png","/l/a/laptop_5.png"
"","34343434","","","","","","","","","","","","","","","","","",""
"","34343434","","","","","","","","","","","","","","","","","",""
"","34343434","","","","","","","","","","","","","","","","","",""
"","34343434","","","","","","","","","","","","","","","","","",""
"","34343434","","","","","","","","","","","","","","","","","",""
"acer","1232332","4Sony KD65X9300D Full HD 4K Android Internet 3D Television 65inch","","","","","","Ubunto","15750.0000","1000.0000","Enabled","Catalog, Search","base","Default","simple","2,3,5,6,7,8,9,10,11","/g/a/gaming_product_1.png","/g/a/gaming_product_1.png","/g/a/gaming_product_1.png"
"","1232332","","","","","","","","","","","","","","","","","",""
"","1232332","","","","","","","","","","","","","","","","","",""
"","1232332","","","","","","","","","","","","","","","","","",""
"","1232332","","","","","","","","","","","","","","","","","",""
"","1232332","","","","","","","","","","","","","","","","","",""
"dell","4545454","3Sony KD65X9300D Full HD 4K Android Internet 3D Television 65inch","","","","","","Windows10","15750.0000","999.0000","Enabled","Catalog, Search","base","Default","simple","2,3,5,6,7,8,9,10,11,32","/l/e/led_1.png","/l/e/led_1.png","/l/e/led_1.png"
"","4545454","","","","","","","","","","","","","","","","","",""
"","4545454","","","","","","","","","","","","","","","","","",""
"","4545454","","","","","","","","","","","","","","","","","",""
"","4545454","","","","","","","","","","","","","","","","","",""
"","4545454","","","","","","","","","","","","","","","","","",""
"dell","eew3242342","2Sony KD65X9300D Full HD 4K Android Internet 3D Television 65inch","","","","","","MAC","200.0000","996.0000","Enabled","Catalog, Search","base","Default","simple","2,3,5,6,7,8,9,10,11,32","/l/a/laptop_1_1.png","/l/a/laptop_1_1.png","/l/a/laptop_1_1.png"
"","eew3242342","","","","","","","","","","","","","","","","","",""
"","eew3242342","","","","","","","","","","","","","","","","","",""
"","eew3242342","","","","","","","","","","","","","","","","","",""
"","eew3242342","","","","","","","","","","","","","","","","","",""
"dell","arabic-123","1Sony KD65X9300D Full HD 4K Android Internet 3D Television 65inch","","","","","","Windows10","15750.0000","50.0000","Disabled","Catalog, Search","base","Default","simple","2,3,5,6,7,8,9,10,11,32","/l/e/led_1_1.png","/l/e/led_1_1.png","/l/e/led_1_1.png"
"","arabic-123","","","","","","","","","","","","","","","","","",""
"","arabic-123","","","","","","","","","","","","","","","","","",""
"","arabic-123","","","","","","","","","","","","","","","","","",""
"","arabic-123","","","","","","","","","","","","","","","","","",""
"","arabic-123","","","","","","","","","","","","","","","","","",""
"thermaltake","9721369","Thermaltake Core P90 Tempered Glass Edition Mid-Tower Chassis","","","","","","","249.9900","4.0000","Enabled","Catalog, Search","base","Default","simple","15,40","/m/a/main.jpg","/m/a/main.jpg","/m/a/main.jpg"
"","9721369","","","","","","","","","","","","","","","","","",""
"","9721369","","","","","","","","","","","","","","","","","",""
"msi","69696969696","MSI GE63VR Raider-075 15.6"" 120Hz 3ms Display Premium Gaming Laptop i7-7700HQ GTX 1070 8G 16GB 128GB SSD + 1TB","","i7-7700HQ","GTX 1070 8G","16 GB","128GB SSD + 1TB","Windows10","1799.0000","5.0000","Enabled","Catalog, Search","base","Laptop","simple","4,34","/p/r/product_5_20180126035942_5a6a372ebb39a-1.png","/p/r/product_5_20180126035942_5a6a372ebb39a-1.png","/p/r/product_5_20180126035942_5a6a372ebb39a-1.png"
"","69696969696","","","","","","","","","","","","","","","","","",""
"","69696969696","","","","","","","","","","","","","","","","","",""
"","69696969696","","","","","","","","","","","","","","","","","",""
"","69696969696","","","","","","","","","","","","","","","","","",""
"","69696969696","","","","","","","","","","","","","","","","","",""
"msi","9401","MSI GS63 7RD (GeForce® GTX 1050, 2GB GDDR5) ","15 - 15.9 inches","i7-7700HQ","GeForce® GTX 1050, 2GB GDDR5","16 GB","128SSD +1TB ","Windows10","9999.0000","20.0000","Enabled","Catalog, Search","base","Laptop","simple","4,34","/p/r/product_10_20170116184529_587ca449818ed.png","/p/r/product_10_20170116184529_587ca449818ed.png","/p/r/product_10_20170116184529_587ca449818ed.png"
"","9401","","","","","","","","","","","","","","","","","",""
"","9401","","","","","","","","","","","","","","","","","",""
"","9401","","","","","","","","","","","","","","","","","",""
"","9401","","","","","","","","","","","","","","","","","",""
"thermaltake","9402","Thermaltake Versa N21","","","","","","","59.9900","0.0000","Enabled","Catalog, Search","base","Products with Attributes","configurable","15,40","/p/i/pic1.jpg","/p/i/pic1.jpg","/p/i/pic1.jpg"
"","9402","","","","","","","","","","","","","","","","","",""
"","9402","","","","","","","","","","","","","","","","","",""
"","9402","","","","","","","","","","","","","","","","","",""
"thermaltake","9402-Black","Thermaltake Versa N21-Black","","","","","","","55.0000","18.0000","Enabled","Not Visible Individually","base","Products with Attributes","simple","","","",""
"","9402-Black","","","","","","","","","","","","","","","","","",""
"thermaltake","9402-White","Thermaltake Versa N21-White","","","","","","","55.0000","20.0000","Enabled","Not Visible Individually","base","Products with Attributes","simple","","","",""
"thermaltake","PS-TPI-1250DPCTEU-T","Thermaltake Toughpower iRGB PLUS 1250W Titanium - TT Premium Edition","","","","","","","999.0000","5.0000","Enabled","Catalog, Search","base","Default","simple","15,46","/p/s/ps-tpi-1250dpctxx-t_e7a17c915bde4ba6b9155d0737f0c8cc.jpg","/p/s/ps-tpi-1250dpctxx-t_e7a17c915bde4ba6b9155d0737f0c8cc.jpg","/p/s/ps-tpi-1250dpctxx-t_e7a17c915bde4ba6b9155d0737f0c8cc.jpg"
"","PS-TPI-1250DPCTEU-T","","","","","","","","","","","","","","","","","",""
"","PS-TPI-1250DPCTEU-T","","","","","","","","","","","","","","","","","",""
"thermaltake","PS-TPI-1200F2FDPE-1","Thermaltake Toughpower iRGB PLUS 1200W Platinum - TT Premium Edition","","","","","","","999.0000","32.0000","Enabled","Catalog, Search","base","Default","simple","12,15,46","/p/s/ps-tpi-1200f2fdpx-1_823b937d300947d3a98891d0d0760b6b.jpg","/p/s/ps-tpi-1200f2fdpx-1_823b937d300947d3a98891d0d0760b6b.jpg","/p/s/ps-tpi-1200f2fdpx-1_823b937d300947d3a98891d0d0760b6b.jpg"
"","PS-TPI-1200F2FDPE-1","","","","","","","","","","","","","","","","","",""
"","PS-TPI-1200F2FDPE-1","","","","","","","","","","","","","","","","","",""
"","PS-TPI-1200F2FDPE-1","","","","","","","","","","","","","","","","","",""
"","PS-TPI-1200F2FDPE-1","","","","","","","","","","","","","","","","","",""
"thermaltake","PS-TPI-1050F2FDPE-1","Thermaltake Toughpower iRGB PLUS 1050W Platinum - TT Premium Edition","","","","","","","999.0000","20.0000","Enabled","Catalog, Search","base","Default","simple","15,46","/p/s/ps-tpi-1050f2fdpx-1_774d63258ce9450fb88a1286744d8f48.jpg","/p/s/ps-tpi-1050f2fdpx-1_774d63258ce9450fb88a1286744d8f48.jpg","/p/s/ps-tpi-1050f2fdpx-1_774d63258ce9450fb88a1286744d8f48.jpg"
"","PS-TPI-1050F2FDPE-1","","","","","","","","","","","","","","","","","",""
"","PS-TPI-1050F2FDPE-1","","","","","","","","","","","","","","","","","",""
"","PS-TPI-1050F2FDPE-1","","","","","","","","","","","","","","","","","",""
"thermaltake","PS-TPG-0850FPCGEU-R","Thermaltake Toughpower Grand RGB 850W Gold Fully Modular","","","","","","","999.0000","48.0000","Enabled","Catalog, Search","base","Default","simple","15,46","/p/s/ps-tpg-0850fpcgxx-r_cce380e37adc41bfacbc0c05b8cec237_1.jpg","/p/s/ps-tpg-0850fpcgxx-r_cce380e37adc41bfacbc0c05b8cec237_1.jpg","/p/s/ps-tpg-0850fpcgxx-r_cce380e37adc41bfacbc0c05b8cec237_1.jpg"
"","PS-TPG-0850FPCGEU-R","","","","","","","","","","","","","","","","","",""
"","PS-TPG-0850FPCGEU-R","","","","","","","","","","","","","","","","","",""
"","PS-TPG-0850FPCGEU-R","","","","","","","","","","","","","","","","","",""
"thermaltake","PS-SPR-0750FPCBEU-R","Thermaltake Smart Pro RGB 750W Bronze Fully Modular","","","","","","","999.0000","11.0000","Enabled","Catalog, Search","base","Default","simple","15,46","/p/s/ps-spr-0750fpcbxx-r_13cd6177fc144663864a415017c54b94.jpg","/p/s/ps-spr-0750fpcbxx-r_13cd6177fc144663864a415017c54b94.jpg","/p/s/ps-spr-0750fpcbxx-r_13cd6177fc144663864a415017c54b94.jpg"
"","PS-SPR-0750FPCBEU-R","","","","","","","","","","","","","","","","","",""
"","PS-SPR-0750FPCBEU-R","","","","","","","","","","","","","","","","","",""
"","PS-SPR-0750FPCBEU-R","","","","","","","","","","","","","","","","","",""
"thermaltake","PS-SPR-0700NHSAWE-1","Thermaltake Smart RGB 700W","","","","","","","999.0000","12.0000","Enabled","Catalog, Search","base","Default","simple","15,46","/p/s/ps-spr-0700nhfawx-1_e8e0f78805a0460ba5147f5e5e2d27f0.jpg","/p/s/ps-spr-0700nhfawx-1_e8e0f78805a0460ba5147f5e5e2d27f0.jpg","/p/s/ps-spr-0700nhfawx-1_e8e0f78805a0460ba5147f5e5e2d27f0.jpg"
"","PS-SPR-0700NHSAWE-1","","","","","","","","","","","","","","","","","",""
"","PS-SPR-0700NHSAWE-1","","","","","","","","","","","","","","","","","",""
"","PS-SPR-0700NHSAWE-1","","","","","","","","","","","","","","","","","",""
"thermaltake","PS-LTP-0650NPCNEU-2","Thermaltake Litepower 650W (230V)","","","","","","","999.0000","48.0000","Enabled","Catalog, Search","base","Default","simple","15,46","/l/t/ltp-0650p-f_ab808a09cc0c4a3180d5fd1358637d13.jpg","/l/t/ltp-0650p-f_ab808a09cc0c4a3180d5fd1358637d13.jpg","/l/t/ltp-0650p-f_ab808a09cc0c4a3180d5fd1358637d13.jpg"
"","PS-LTP-0650NPCNEU-2","","","","","","","","","","","","","","","","","",""
"","PS-LTP-0650NPCNEU-2","","","","","","","","","","","","","","","","","",""
"","PS-LTP-0650NPCNEU-2","","","","","","","","","","","","","","","","","",""
"","PS-LTP-0650NPCNEU-2","","","","","","","","","","","","","","","","","",""
"thermaltake","CL-W181-CU00SW-A","Thermaltake Pacific W4 Plus CPU Water Block","","","","","","","89.9900","3.0000","Enabled","Catalog, Search","base","Default","simple","15,41,44","/c/l/cl-w181-cu00sw-a_928d0d25be6049419f54a02fde7362f6.jpg","/c/l/cl-w181-cu00sw-a_928d0d25be6049419f54a02fde7362f6.jpg","/c/l/cl-w181-cu00sw-a_928d0d25be6049419f54a02fde7362f6.jpg"
"","CL-W181-CU00SW-A","","","","","","","","","","","","","","","","","",""
"","CL-W181-CU00SW-A","","","","","","","","","","","","","","","","","",""
"","CL-W181-CU00SW-A","","","","","","","","","","","","","","","","","",""
"","CL-W181-CU00SW-A","","","","","","","","","","","","","","","","","",""
"thermaltake","CL-W159-PL12BL-A","Thermaltake Water 3.0 Riing RGB 360","","","","","","","999.0000","24.0000","Enabled","Catalog, Search","base","Default","simple","15,41","/c/l/cl-w108-pl12sw-a__70b65d68a88e42d598b0f7fdef8b92ab.jpg","/c/l/cl-w108-pl12sw-a__70b65d68a88e42d598b0f7fdef8b92ab.jpg","/c/l/cl-w108-pl12sw-a__70b65d68a88e42d598b0f7fdef8b92ab.jpg"
"","CL-W159-PL12BL-A","","","","","","","","","","","","","","","","","",""
"","CL-W159-PL12BL-A","","","","","","","","","","","","","","","","","",""
"","CL-W159-PL12BL-A","","","","","","","","","","","","","","","","","",""
"thermaltake","CL-W152-PL00BL-A","Thermaltake Pacific Flow Indicator Two","","","","","","","999.0000","5.0000","Enabled","Catalog, Search","base","Default","simple","15,41","/c/l/cl-w152-pl00bl-a_82d6b181b689445db07e61261f6859cc.jpg","/c/l/cl-w152-pl00bl-a_82d6b181b689445db07e61261f6859cc.jpg","/c/l/cl-w152-pl00bl-a_82d6b181b689445db07e61261f6859cc.jpg"
"","CL-W152-PL00BL-A","","","","","","","","","","","","","","","","","",""
"","CL-W152-PL00BL-A","","","","","","","","","","","","","","","","","",""
"thermaltake","CL-W151-CU00BL-A","Thermaltake Pacific Temperature Sensor","","","","","","","999.0000","5.0000","Enabled","Catalog, Search","base","Default","simple","15,41","/m/a/main_1.jpg","/m/a/main_1.jpg","/m/a/main_1.jpg"
"","CL-W151-CU00BL-A","","","","","","","","","","","","","","","","","",""
"","CL-W151-CU00BL-A","","","","","","","","","","","","","","","","","",""
"","CL-W151-CU00BL-A","","","","","","","","","","","","","","","","","",""
"thermaltake","CL-W138-PL14SW-A","Thermaltake Water 3.0 Riing RGB 280","","","","","","","99.0000","12.0000","Enabled","Catalog, Search","base","Default","simple","15,41","/c/l/cl-w138-pl14sw-a_7d19f8883aca4a01b63333e80cba1173.jpg","/c/l/cl-w138-pl14sw-a_7d19f8883aca4a01b63333e80cba1173.jpg","/c/l/cl-w138-pl14sw-a_7d19f8883aca4a01b63333e80cba1173.jpg"
"","CL-W138-PL14SW-A","","","","","","","","","","","","","","","","","",""
"","CL-W138-PL14SW-A","","","","","","","","","","","","","","","","","",""
"","CL-W138-PL14SW-A","","","","","","","","","","","","","","","","","",""
"","CL-W138-PL14SW-A","","","","","","","","","","","","","","","","","",""
"thermaltake","CA-1I7-00F1WN-01","Thermaltake View 71 Tempered Glass RGB Edition Full Tower Chassis","","","","","","","199.0000","15.0000","Enabled","Catalog, Search","base","Default","simple","15,40","/c/a/ca-1i7-00f1wn-01_a3016506b21e4fa9b204d679db306119.jpg","/c/a/ca-1i7-00f1wn-01_a3016506b21e4fa9b204d679db306119.jpg","/c/a/ca-1i7-00f1wn-01_a3016506b21e4fa9b204d679db306119.jpg"
"","CA-1I7-00F1WN-01","","","","","","","","","","","","","","","","","",""
"","CA-1I7-00F1WN-01","","","","","","","","","","","","","","","","","",""
"","CA-1I7-00F1WN-01","","","","","","","","","","","","","","","","","",""
"","CA-1I7-00F1WN-01","","","","","","","","","","","","","","","","","",""
"","CA-1I7-00F1WN-01","","","","","","","","","","","","","","","","","",""
"","CA-1I7-00F1WN-01","","","","","","","","","","","","","","","","","",""
"thermaltake","CA-1I4-00M1WN-00","Thermaltake Core G21 Tempered Glass Edition Mid-Tower Chassis","","","","","","","75.0000","20.0000","Enabled","Catalog, Search","base","Default","simple","15,40","/c/a/ca-1i4-00m1wn-00_b2b5f33c0b1b484bad358f714c5eb9d2.jpg","/c/a/ca-1i4-00m1wn-00_b2b5f33c0b1b484bad358f714c5eb9d2.jpg","/c/a/ca-1i4-00m1wn-00_b2b5f33c0b1b484bad358f714c5eb9d2.jpg"
"","CA-1I4-00M1WN-00","","","","","","","","","","","","","","","","","",""
"","CA-1I4-00M1WN-00","","","","","","","","","","","","","","","","","",""
"","CA-1I4-00M1WN-00","","","","","","","","","","","","","","","","","",""
"","CA-1I4-00M1WN-00","","","","","","","","","","","","","","","","","",""
"","CA-1I4-00M1WN-00","","","","","","","","","","","","","","","","","",""
"thermaltake","CA-1E7-00M1WN-00","Thermaltake Core P5 ATX Wall-Mount Chassis","","","","","","","175.0000","3.0000","Enabled","Catalog, Search","base","Default","simple","15,40","/c/a/ca-1e7-00m1wn-00_a838deacd1ad4959b74ffb3fc7ccc54c.jpg","/c/a/ca-1e7-00m1wn-00_a838deacd1ad4959b74ffb3fc7ccc54c.jpg","/c/a/ca-1e7-00m1wn-00_a838deacd1ad4959b74ffb3fc7ccc54c.jpg"
"","CA-1E7-00M1WN-00","","","","","","","","","","","","","","","","","",""
"","CA-1E7-00M1WN-00","","","","","","","","","","","","","","","","","",""
"","CA-1E7-00M1WN-00","","","","","","","","","","","","","","","","","",""
"","CA-1E7-00M1WN-00","","","","","","","","","","","","","","","","","",""
"thermaltake","CA-1G1-00M1WN-00","Thermaltake Versa N24 Mid-Tower Chassis","","","","","","","59.9900","10.0000","Enabled","Catalog, Search","base","Default","simple","15,40","/c/a/ca-1g1-00m1wn-00_7a27afccc45f474a9c490aac61369d8b_1.jpg","/c/a/ca-1g1-00m1wn-00_7a27afccc45f474a9c490aac61369d8b_1.jpg","/c/a/ca-1g1-00m1wn-00_7a27afccc45f474a9c490aac61369d8b_1.jpg"
"","CA-1G1-00M1WN-00","","","","","","","","","","","","","","","","","",""
"","CA-1G1-00M1WN-00","","","","","","","","","","","","","","","","","",""
"","CA-1G1-00M1WN-00","","","","","","","","","","","","","","","","","",""
"","CA-1G1-00M1WN-00","","","","","","","","","","","","","","","","","",""
"thermaltake","CA-1G3-00M1WN-00","Thermaltake Versa N26 Window Mid-Tower Chassis","","","","","","","49.9900","10.0000","Enabled","Catalog, Search","base","Default","simple","12,15,40","/c/a/ca-1g3-00m1wn-00_ada8040fcad8431ea4ca41a373719aea.jpg","/c/a/ca-1g3-00m1wn-00_ada8040fcad8431ea4ca41a373719aea.jpg","/c/a/ca-1g3-00m1wn-00_ada8040fcad8431ea4ca41a373719aea.jpg"
"","CA-1G3-00M1WN-00","","","","","","","","","","","","","","","","","",""
"","CA-1G3-00M1WN-00","","","","","","","","","","","","","","","","","",""
"","CA-1G3-00M1WN-00","","","","","","","","","","","","","","","","","",""
"","CA-1G3-00M1WN-00","","","","","","","","","","","","","","","","","",""
"thermaltake","CA-1G5-00M1WN-00","Thermaltake Versa U21 Window Mid-tower Chassis","","","","","","","69.9900","20.0000","Enabled","Catalog, Search","base","Default","simple","15,40","/m/a/main_3.jpg","/m/a/main_3.jpg","/m/a/main_3.jpg"
"","CA-1G5-00M1WN-00","","","","","","","","","","","","","","","","","",""
"","CA-1G5-00M1WN-00","","","","","","","","","","","","","","","","","",""
"","CA-1G5-00M1WN-00","","","","","","","","","","","","","","","","","",""
"","CA-1G5-00M1WN-00","","","","","","","","","","","","","","","","","",""
"","CA-1G5-00M1WN-00","","","","","","","","","","","","","","","","","",""
"thermaltake","CA-1G7-00M1WN-00","Thermaltake View 27 Gull-Wing Window ATX Mid-Tower Chassis","","","","","","","75.0000","10.0000","Enabled","Catalog, Search","base","Default","simple","15,40","/c/a/ca-1g7-00m1wn-00_c9c2eec67c7842dcbc11ea7de7e1bcba.jpg","/c/a/ca-1g7-00m1wn-00_c9c2eec67c7842dcbc11ea7de7e1bcba.jpg","/c/a/ca-1g7-00m1wn-00_c9c2eec67c7842dcbc11ea7de7e1bcba.jpg"
"","CA-1G7-00M1WN-00","","","","","","","","","","","","","","","","","",""
"","CA-1G7-00M1WN-00","","","","","","","","","","","","","","","","","",""
"","CA-1G7-00M1WN-00","","","","","","","","","","","","","","","","","",""
"","CA-1G7-00M1WN-00","","","","","","","","","","","","","","","","","",""
"thermaltake","CA-1G8-00M1WN-00","Thermaltake Versa C21 RGB ATX Mid-Tower Chassis","","","","","","","79.9900","30.0000","Enabled","Catalog, Search","base","Default","simple","15,40","/c/a/ca-1g8-00m1wn-00_174999f3e1cb4dba9763d24fc7d0af10.jpg","/c/a/ca-1g8-00m1wn-00_174999f3e1cb4dba9763d24fc7d0af10.jpg","/c/a/ca-1g8-00m1wn-00_174999f3e1cb4dba9763d24fc7d0af10.jpg"
"","CA-1G8-00M1WN-00","","","","","","","","","","","","","","","","","",""
"","CA-1G8-00M1WN-00","","","","","","","","","","","","","","","","","",""
"","CA-1G8-00M1WN-00","","","","","","","","","","","","","","","","","",""
"","CA-1G8-00M1WN-00","","","","","","","","","","","","","","","","","",""
"thermaltake","CA-1H7-00M1WN-00","Thermaltake Versa C23 Tempered Glass RGB Edition Mid-tower Chassis","","","","","","","89.9900","10.0000","Enabled","Catalog, Search","base","Default","simple","15,40","/c/a/ca-1h7-00m1wn-00_4cd968f3ecec47af9284718928e63981.jpg","/c/a/ca-1h7-00m1wn-00_4cd968f3ecec47af9284718928e63981.jpg","/c/a/ca-1h7-00m1wn-00_4cd968f3ecec47af9284718928e63981.jpg"
"","CA-1H7-00M1WN-00","","","","","","","","","","","","","","","","","",""
"","CA-1H7-00M1WN-00","","","","","","","","","","","","","","","","","",""
"","CA-1H7-00M1WN-00","","","","","","","","","","","","","","","","","",""
"","CA-1H7-00M1WN-00","","","","","","","","","","","","","","","","","",""
"thermaltake","CA-1H8-00M1WN-00","Thermaltake View 31 Tempered Glass Edition Mid Tower Chassis","","","","","","","109.0000","20.0000","Enabled","Catalog, Search","base","Default","simple","15,40","/c/a/ca-1h8-00m1wn-00_c140ba3fdff9481892675ddf8918c748.jpg","/c/a/ca-1h8-00m1wn-00_c140ba3fdff9481892675ddf8918c748.jpg","/c/a/ca-1h8-00m1wn-00_c140ba3fdff9481892675ddf8918c748.jpg"
"","CA-1H8-00M1WN-00","","","","","","","","","","","","","","","","","",""
"","CA-1H8-00M1WN-00","","","","","","","","","","","","","","","","","",""
"","CA-1H8-00M1WN-00","","","","","","","","","","","","","","","","","",""
"","CA-1H8-00M1WN-00","","","","","","","","","","","","","","","","","",""
"thermaltake","CA-1J1-00S1WN-00","Thermaltake Versa H17 Window Micro Case","","","","","","","45.0000","3.0000","Enabled","Catalog, Search","base","Default","simple","15,40","/c/a/ca-1j1-00s1wn-00_258f2a480df54aed96c64fa78597dd6b.jpg","/c/a/ca-1j1-00s1wn-00_258f2a480df54aed96c64fa78597dd6b.jpg","/c/a/ca-1j1-00s1wn-00_258f2a480df54aed96c64fa78597dd6b.jpg"
"","CA-1J1-00S1WN-00","","","","","","","","","","","","","","","","","",""
"","CA-1J1-00S1WN-00","","","","","","","","","","","","","","","","","",""
"","CA-1J1-00S1WN-00","","","","","","","","","","","","","","","","","",""
"","CA-1J1-00S1WN-00","","","","","","","","","","","","","","","","","",""
"thermaltake","CA-1J3-00M1WN-00","Thermaltake View 22 Tempered Glass Edition Mid-Tower Chassis","","","","","","","59.9900","15.0000","Enabled","Catalog, Search","base","Default","simple","15,40","/c/a/ca-1j3-00m1wn-00__1e96bca6e7b54209a72801da07e017d6.jpg","/c/a/ca-1j3-00m1wn-00__1e96bca6e7b54209a72801da07e017d6.jpg","/c/a/ca-1j3-00m1wn-00__1e96bca6e7b54209a72801da07e017d6.jpg"
"","CA-1J3-00M1WN-00","","","","","","","","","","","","","","","","","",""
"","CA-1J3-00M1WN-00","","","","","","","","","","","","","","","","","",""
"","CA-1J3-00M1WN-00","","","","","","","","","","","","","","","","","",""
"","CA-1J3-00M1WN-00","","","","","","","","","","","","","","","","","",""
"","CA-1J3-00M1WN-00","","","","","","","","","","","","","","","","","",""
"","CA-1J3-00M1WN-00","","","","","","","","","","","","","","","","","",""
"msi","MSI LAPTOP GT73EVR 7RF / 1085","MSI LAPTOP GT73EVR 7RF / 1085","15 - 15.9 inches","INTEL CORE I7-7820HK","8GB GTX 1080","32 GB","256GB SSD + 1TB ","Windows10","3600.0000","0.0000","Enabled","Catalog, Search","","Laptop","simple","12","/a/w/awqwqw.jpg","/a/w/awqwqw.jpg","/a/w/awqwqw.jpg"
"thermaltake","129736","Thermaltake Draconem RGB - Hard Edition Mouse Pad","","","","","","","49.9900","1.0000","Enabled","Catalog, Search","base","Default","simple","13","/2/0/2016052715122185-69s.jpg","/2/0/2016052715122185-69s.jpg","/2/0/2016052715122185-69s.jpg"
"","129736","","","","","","","","","","","","","","","","","",""
"","129736","","","","","","","","","","","","","","","","","",""
"thermaltake","81436","Thermaltake Tt eSPORTS GT Fit F100 Gaming Chair Green","","","","","","","299.0000","5.0000","Enabled","Catalog, Search","base","Default","simple","13","/2/0/2016091415045782-43s.jpg","/2/0/2016091415045782-43s.jpg","/2/0/2016091415045782-43s.jpg"
"","81436","","","","","","","","","","","","","","","","","",""
"","81436","","","","","","","","","","","","","","","","","",""
"","81436","","","","","","","","","","","","","","","","","",""
"","81436","","","","","","","","","","","","","","","","","",""
"","81436","","","","","","","","","","","","","","","","","",""
"thermaltake","193726485","Thermaltake Tt eSPORTS X Comfort XC500 Gaming Chair Black","","","","","","","399.0000","5.0000","Enabled","Catalog, Search","base","Default","simple","13","/2/0/2016091415253886-83s.jpg","/2/0/2016091415253886-83s.jpg","/2/0/2016091415253886-83s.jpg"
"","193726485","","","","","","","","","","","","","","","","","",""
"","193726485","","","","","","","","","","","","","","","","","",""
"","193726485","","","","","","","","","","","","","","","","","",""
"","193726485","","","","","","","","","","","","","","","","","",""
"","193726485","","","","","","","","","","","","","","","","","",""
"","193726485","","","","","","","","","","","","","","","","","",""
"thermaltake","786543","Thermaltake Tt eSPORTS X Fit XF100 Gaming Chair Black","","","","","","","349.0000","5.0000","Enabled","Catalog, Search","base","Default","simple","13","/2/0/2016091415065678-54s.jpg","/2/0/2016091415065678-54s.jpg","/2/0/2016091415065678-54s.jpg"
"","786543","","","","","","","","","","","","","","","","","",""
"","786543","","","","","","","","","","","","","","","","","",""
"","786543","","","","","","","","","","","","","","","","","",""
"","786543","","","","","","","","","","","","","","","","","",""
"","786543","","","","","","","","","","","","","","","","","",""
"","786543","","","","","","","","","","","","","","","","","",""
"thermaltake","324t7","Thermaltake Tt eSPORTS CRONOS RGB 7.1 Surround Sound Gaming Headset ","","","","","","","75.0000","5.0000","Enabled","Catalog, Search","base","Default","simple","12,13","/2/0/2016080813150038-21s.jpg","/2/0/2016080813150038-21s.jpg","/2/0/2016080813150038-21s.jpg"
"","324t7","","","","","","","","","","","","","","","","","",""
"","324t7","","","","","","","","","","","","","","","","","",""
"","324t7","","","","","","","","","","","","","","","","","",""
"","324t7","","","","","","","","","","","","","","","","","",""
"thermaltake","8321t9","Thermaltake TT Premium X1 RGB Cherry MX Blue Keyboard","","","","","","","129.0000","5.0000","Enabled","Catalog, Search","base","Default","simple","13","/k/b/kb-tpx-blbrus-01_49aa43f745594fed81d4938ebaf17bc0_thum.jpg","/k/b/kb-tpx-blbrus-01_49aa43f745594fed81d4938ebaf17bc0_thum.jpg","/k/b/kb-tpx-blbrus-01_49aa43f745594fed81d4938ebaf17bc0_thum.jpg"
"","8321t9","","","","","","","","","","","","","","","","","",""
"","8321t9","","","","","","","","","","","","","","","","","",""
"","8321t9","","","","","","","","","","","","","","","","","",""
"","8321t9","","","","","","","","","","","","","","","","","",""
"","8321t9","","","","","","","","","","","","","","","","","",""
"thermaltake","823q7rg","Thermaltake Tt eSPORTS SHOCK 3D 7.1 Surround Sound Gaming Headset","","","","","","","75.0000","5.0000","Enabled","Catalog, Search","base","Default","simple","12,13","/2/0/2014102114094603-38s.jpg","/2/0/2014102114094603-38s.jpg","/2/0/2014102114094603-38s.jpg"
"","823q7rg","","","","","","","","","","","","","","","","","",""
"","823q7rg","","","","","","","","","","","","","","","","","",""
"","823q7rg","","","","","","","","","","","","","","","","","",""
"","823q7rg","","","","","","","","","","","","","","","","","",""
"thermaltake","21834t9","Thermaltake TT Premium X1 RGB Cherry MX Silver Keyboard","","","","","","","139.0000","5.0000","Enabled","Catalog, Search","base","Default","simple","13","/k/b/kb-tpx-blbrus-01_76ef2322081541ac8a20fee81f614b01_1.jpg","/k/b/kb-tpx-blbrus-01_76ef2322081541ac8a20fee81f614b01_1.jpg","/k/b/kb-tpx-blbrus-01_76ef2322081541ac8a20fee81f614b01_1.jpg"
"","21834t9","","","","","","","","","","","","","","","","","",""
"","21834t9","","","","","","","","","","","","","","","","","",""
"","21834t9","","","","","","","","","","","","","","","","","",""
"","21834t9","","","","","","","","","","","","","","","","","",""
"","21834t9","","","","","","","","","","","","","","","","","",""
"thermaltake","hr8f19","Thermaltake Tt eSPORTS Nemesis Switch Optical RGB Gaming Mouse","","","","","","","49.0000","5.0000","Enabled","Catalog, Search","base","Default","simple","13","/2/0/2017090814571568-56s.jpg","/2/0/2017090814571568-56s.jpg","/2/0/2017090814571568-56s.jpg"
"","hr8f19","","","","","","","","","","","","","","","","","",""
"","hr8f19","","","","","","","","","","","","","","","","","",""
"","hr8f19","","","","","","","","","","","","","","","","","",""
"","hr8f19","","","","","","","","","","","","","","","","","",""
"","hr8f19","","","","","","","","","","","","","","","","","",""
"","hr8f19","","","","","","","","","","","","","","","","","",""
"thermaltake","nf03","Thermaltake Core P7 Tempered Glass Edition Full Tower Chassis","","","","","","","279.9900","1.0000","Enabled","Catalog, Search","base","Default","simple","15,40","/c/a/ca-1i2-00f1wn-00_3ad5898807384cb58a8ea0f3635658b3.jpg","/c/a/ca-1i2-00f1wn-00_3ad5898807384cb58a8ea0f3635658b3.jpg","/c/a/ca-1i2-00f1wn-00_3ad5898807384cb58a8ea0f3635658b3.jpg"
"","nf03","","","","","","","","","","","","","","","","","",""
"","nf03","","","","","","","","","","","","","","","","","",""
"","nf03","","","","","","","","","","","","","","","","","",""
"","nf03","","","","","","","","","","","","","","","","","",""
"","nf03","","","","","","","","","","","","","","","","","",""
"thermaltake","293b47","Thermaltake Core V51 Window Mid-Tower Chassis","","","","","","","119.9900","2.0000","Enabled","Catalog, Search","base","Default","simple","15,40","/c/a/ca-1c6-00m1wn-00_f400504dd6ad4a94990146686b2167d5_1.jpg","/c/a/ca-1c6-00m1wn-00_f400504dd6ad4a94990146686b2167d5_1.jpg","/c/a/ca-1c6-00m1wn-00_f400504dd6ad4a94990146686b2167d5_1.jpg"
"","293b47","","","","","","","","","","","","","","","","","",""
"","293b47","","","","","","","","","","","","","","","","","",""
"","293b47","","","","","","","","","","","","","","","","","",""
"","293b47","","","","","","","","","","","","","","","","","",""
"","293b47","","","","","","","","","","","","","","","","","",""
"","293b47","","","","","","","","","","","","","","","","","",""
"thermaltake","f29mu1","Thermaltake Core X31 Mid Tower Chassis","","","","","","","119.9900","2.0000","Enabled","Catalog, Search","base","Default","simple","15,40","/c/a/ca-1e9-00m1wn-00_97bd920bb86a4c598a75b3eeccc6e603.jpg","/c/a/ca-1e9-00m1wn-00_97bd920bb86a4c598a75b3eeccc6e603.jpg","/c/a/ca-1e9-00m1wn-00_97bd920bb86a4c598a75b3eeccc6e603.jpg"
"","f29mu1","","","","","","","","","","","","","","","","","",""
"","f29mu1","","","","","","","","","","","","","","","","","",""
"","f29mu1","","","","","","","","","","","","","","","","","",""
"","f29mu1","","","","","","","","","","","","","","","","","",""
"","f29mu1","","","","","","","","","","","","","","","","","",""
"","f29mu1","","","","","","","","","","","","","","","","","",""
"thermaltake","dm923","Thermaltake Core W100 Super Tower Chassis","","","","","","","299.0000","1.0000","Enabled","Catalog, Search","base","Default","simple","15,40","/c/a/ca-1f2-00f1wn-00_c4ae43c477f648079354960a7ee7ecae.jpg","/c/a/ca-1f2-00f1wn-00_c4ae43c477f648079354960a7ee7ecae.jpg","/c/a/ca-1f2-00f1wn-00_c4ae43c477f648079354960a7ee7ecae.jpg"
"","dm923","","","","","","","","","","","","","","","","","",""
"","dm923","","","","","","","","","","","","","","","","","",""
"","dm923","","","","","","","","","","","","","","","","","",""
"","dm923","","","","","","","","","","","","","","","","","",""
"adata","813he","ADATA HD650X 2TB Durable External Hard Drives Compatible with XBOX ","","","","","","","999.0000","10.0000","Enabled","Catalog, Search","base","Default","simple","12,13,16","/7/1/71b2rrjprsl._sl1000_.jpg","/7/1/71b2rrjprsl._sl1000_.jpg","/7/1/71b2rrjprsl._sl1000_.jpg"
"","813he","","","","","","","","","","","","","","","","","",""
"","813he","","","","","","","","","","","","","","","","","",""
"","813he","","","","","","","","","","","","","","","","","",""
"","813he","","","","","","","","","","","","","","","","","",""
"","813he","","","","","","","","","","","","","","","","","",""
"adata","9v0m","ADATA HD700 USB 3.0, Blue Durable External Hard Drives","","","","","","","999.0000","10.0000","Enabled","Catalog, Search","base","Default","simple","13,16","/p/r/productgallery4611.jpg","/p/r/productgallery4611.jpg","/p/r/productgallery4611.jpg"
"","9v0m","","","","","","","","","","","","","","","","","",""
"","9v0m","","","","","","","","","","","","","","","","","",""
"","9v0m","","","","","","","","","","","","","","","","","",""
"lenovo","20726","LENOVO LAPTOP I320","15 - 15.9 inches","INTEL CORE I5-8520U","2GB NVIDIA MX150","4 GB","1TB","Windows10","455.0000","2.0000","Enabled","Catalog, Search","base","Laptop","simple","4","/i/d/ideapad-320-denim-blue-hero.png","/i/d/ideapad-320-denim-blue-hero.png","/i/d/ideapad-320-denim-blue-hero.png"
"","20726","","","","","","","","","","","","","","","","","",""
"lenovo","97641235","test lenovo laptop","15 - 15.9 inches","INTEL CORE I5-8520U","2GB NVIDIA MX150","4 GB","1TB","Windows10","777.0000","8.0000","Enabled","Catalog, Search","base","Laptop","simple","15","/8/1/81xcau-dbvl._sl1500_.jpg","","/8/1/81xcau-dbvl._sl1500_.jpg"
"netgear","1xry2379","Netgear AC750 Wifi Range Extender","","","","","","","888.0000","10.0000","Enabled","Catalog, Search","base","Default","simple","14","/7/1/71o2uc0m_wl._sl1500_.jpg","/7/1/71o2uc0m_wl._sl1500_.jpg","/7/1/71o2uc0m_wl._sl1500_.jpg"
"","1xry2379","","","","","","","","","","","","","","","","","",""
"","1xry2379","","","","","","","","","","","","","","","","","",""
"","1xry2379","","","","","","","","","","","","","","","","","",""
"huion","ckj9q0mh78ne","Huion Inspiroy Q11K 11 inch Wireless Graphic Tablet with 8 Hot Keys","","","","","","","129.9900","20.0000","Enabled","Catalog, Search","base","Default","simple","12","/6/1/61daki4kggl._sl1500_.jpg","/6/1/61daki4kggl._sl1500_.jpg","/6/1/61daki4kggl._sl1500_.jpg"
"","ckj9q0mh78ne","","","","","","","","","","","","","","","","","",""
"","ckj9q0mh78ne","","","","","","","","","","","","","","","","","",""
"","ckj9q0mh78ne","","","","","","","","","","","","","","","","","",""
"","ckj9q0mh78ne","","","","","","","","","","","","","","","","","",""
"","ckj9q0mh78ne","","","","","","","","","","","","","","","","","",""
"","ckj9q0mh78ne","","","","","","","","","","","","","","","","","",""
"huion","m9fnq78cb","Huion KAMVAS GT-156HD Drawing Monitor Pen Display","","","","","","","549.9900","5.0000","Enabled","Catalog, Search","base","Default","simple","12","/7/1/71gvqnbfr4l._sl1500_.jpg","/7/1/71gvqnbfr4l._sl1500_.jpg","/7/1/71gvqnbfr4l._sl1500_.jpg"
"","m9fnq78cb","","","","","","","","","","","","","","","","","",""
"","m9fnq78cb","","","","","","","","","","","","","","","","","",""
"","m9fnq78cb","","","","","","","","","","","","","","","","","",""
"","m9fnq78cb","","","","","","","","","","","","","","","","","",""
"netgear","ju8ason7b6","Netgear N600 WiFi Router WNDR3400-100PES","","","","","","","15.0000","50.0000","Enabled","Catalog, Search","base","Default","simple","14","/7/1/71pm4bxkvdl._sl1500_.jpg","/7/1/71pm4bxkvdl._sl1500_.jpg","/7/1/71pm4bxkvdl._sl1500_.jpg"
"","ju8ason7b6","","","","","","","","","","","","","","","","","",""
"","ju8ason7b6","","","","","","","","","","","","","","","","","",""
"","ju8ason7b6","","","","","","","","","","","","","","","","","",""
"netgear","72h81nd","Netgear N300 WiFi Router WNR2000","","","","","","","15.0000","50.0000","Enabled","Catalog, Search","base","Default","simple","14","/6/1/61capefnydl._sl1350_.jpg","/6/1/61capefnydl._sl1350_.jpg","/6/1/61capefnydl._sl1350_.jpg"
"","72h81nd","","","","","","","","","","","","","","","","","",""
"","72h81nd","","","","","","","","","","","","","","","","","",""
"","72h81nd","","","","","","","","","","","","","","","","","",""
"infocus","02873n0h9c","InFocus IN112x Office and Classroom Projector","","","","","","","999.0000","10.0000","Enabled","Catalog, Search","base","Default","simple","4,49","/i/n/infocus-in112x-hero.jpg","/i/n/infocus-in112x-hero.jpg","/i/n/infocus-in112x-hero.jpg"
"","02873n0h9c","","","","","","","","","","","","","","","","","",""
"","02873n0h9c","","","","","","","","","","","","","","","","","",""
"","02873n0h9c","","","","","","","","","","","","","","","","","",""
"","02873n0h9c","","","","","","","","","","","","","","","","","",""
"a4tech","7ngb6f5v6","A4Tech Bloody M630 Gaming Headphones Black/Red","","","","","","","49.9900","10.0000","Enabled","Catalog, Search","base","Default","simple","13","/7/1/71uxrqhfgkl._sl1500_.jpg","/7/1/71uxrqhfgkl._sl1500_.jpg","/7/1/71uxrqhfgkl._sl1500_.jpg"
"","7ngb6f5v6","","","","","","","","","","","","","","","","","",""
"","7ngb6f5v6","","","","","","","","","","","","","","","","","",""
"apple","8978675645XC","Apple MacBook Pro i7 16GB, 512GB 15"" English and Arabic, Space Grey(with Touch Bar)","15 - 15.9 inches","i7","Radeon Pro 560 with 4GB memory","16 GB","512GB SSD","MAC","3149.9900","4.0000","Enabled","Catalog, Search","base","Laptop","simple","17","/m/b/mbp15touch-space-gallery2-201610_geo_ae_1.jpg","/m/b/mbp15touch-space-gallery2-201610_geo_ae_1.jpg",""
"","8978675645XC","","","","","","","","","","","","","","","","","",""
"","8978675645XC","","","","","","","","","","","","","","","","","",""
"","8978675645XC","","","","","","","","","","","","","","","","","",""
"","8978675645XC","","","","","","","","","","","","","","","","","",""
